module codeberg.org/pronounscc/pronouns.cc

go 1.18

require (
	emperror.dev/errors v0.8.1
	github.com/Masterminds/squirrel v1.5.4
	github.com/bwmarrin/discordgo v0.27.1
	github.com/davidbyttow/govips/v2 v2.13.0
	github.com/georgysavva/scany/v2 v2.0.0
	github.com/go-chi/chi/v5 v5.0.8
	github.com/go-chi/cors v1.2.1
	github.com/go-chi/httprate v0.7.1
	github.com/go-chi/render v1.0.2
	github.com/gobwas/glob v0.2.3
	github.com/golang-jwt/jwt/v4 v4.5.0
	github.com/google/uuid v1.3.0
	github.com/jackc/pgx/v5 v5.3.1
	github.com/joho/godotenv v1.5.1
	github.com/mediocregopher/radix/v4 v4.1.2
	github.com/minio/minio-go/v7 v7.0.50
	github.com/prometheus/client_golang v1.15.0
	github.com/rs/xid v1.4.0
	github.com/rubenv/sql-migrate v1.4.0
	github.com/urfave/cli/v2 v2.25.1
	go.uber.org/zap v1.24.0
	golang.org/x/oauth2 v0.7.0
	google.golang.org/api v0.118.0
)

require (
	cloud.google.com/go/compute v1.19.0 // indirect
	cloud.google.com/go/compute/metadata v0.2.3 // indirect
	github.com/ajg/form v1.5.1 // indirect
	github.com/beorn7/perks v1.0.1 // indirect
	github.com/cespare/xxhash/v2 v2.2.0 // indirect
	github.com/cpuguy83/go-md2man/v2 v2.0.2 // indirect
	github.com/dustin/go-humanize v1.0.1 // indirect
	github.com/go-gorp/gorp/v3 v3.1.0 // indirect
	github.com/golang/groupcache v0.0.0-20200121045136-8c9f03a8e57e // indirect
	github.com/golang/protobuf v1.5.3 // indirect
	github.com/google/s2a-go v0.1.0 // indirect
	github.com/googleapis/enterprise-certificate-proxy v0.2.3 // indirect
	github.com/gorilla/websocket v1.5.0 // indirect
	github.com/jackc/pgpassfile v1.0.0 // indirect
	github.com/jackc/pgservicefile v0.0.0-20221227161230-091c0ba34f0a // indirect
	github.com/jackc/puddle/v2 v2.2.0 // indirect
	github.com/json-iterator/go v1.1.12 // indirect
	github.com/klauspost/compress v1.16.3 // indirect
	github.com/klauspost/cpuid/v2 v2.2.4 // indirect
	github.com/lann/builder v0.0.0-20180802200727-47ae307949d0 // indirect
	github.com/lann/ps v0.0.0-20150810152359-62de8c46ede0 // indirect
	github.com/matttproud/golang_protobuf_extensions v1.0.4 // indirect
	github.com/minio/md5-simd v1.1.2 // indirect
	github.com/minio/sha256-simd v1.0.0 // indirect
	github.com/modern-go/concurrent v0.0.0-20180306012644-bacd9c7ef1dd // indirect
	github.com/modern-go/reflect2 v1.0.2 // indirect
	github.com/pkg/errors v0.9.1 // indirect
	github.com/prometheus/client_model v0.3.0 // indirect
	github.com/prometheus/common v0.42.0 // indirect
	github.com/prometheus/procfs v0.9.0 // indirect
	github.com/russross/blackfriday/v2 v2.1.0 // indirect
	github.com/sirupsen/logrus v1.9.0 // indirect
	github.com/tilinna/clock v1.1.0 // indirect
	github.com/toshi0607/chi-prometheus v0.1.3 // indirect
	github.com/xrash/smetrics v0.0.0-20201216005158-039620a65673 // indirect
	go.opencensus.io v0.24.0 // indirect
	go.uber.org/atomic v1.10.0 // indirect
	go.uber.org/multierr v1.11.0 // indirect
	golang.org/x/crypto v0.7.0 // indirect
	golang.org/x/image v0.6.0 // indirect
	golang.org/x/net v0.9.0 // indirect
	golang.org/x/sync v0.1.0 // indirect
	golang.org/x/sys v0.7.0 // indirect
	golang.org/x/text v0.9.0 // indirect
	google.golang.org/appengine v1.6.7 // indirect
	google.golang.org/genproto v0.0.0-20230403163135-c38d8f061ccd // indirect
	google.golang.org/grpc v1.54.0 // indirect
	google.golang.org/protobuf v1.30.0 // indirect
	gopkg.in/ini.v1 v1.67.0 // indirect
)
